<svg width="12" height="30" viewBox="0 0 12 30" fill="none" xmlns="http://www.w3.org/2000/svg">
<rect x="5" width="2" height="9" fill="context-fill"/>
<circle cx="6" cy="15" r="5" stroke="context-fill" stroke-width="2"/>
<rect x="5" y="21" width="2" height="9" fill="context-fill"/>
</svg>
