<?xml version="1.0" encoding="UTF-8" standalone="no"?>
<svg width="16" height="16" viewBox="0 0 16 16" fill="none" xmlns="http://www.w3.org/2000/svg">
    <path d="M1 9.48528C1 9.48528 3.82843 9.48528 6.65685 6.65685C9.48528 3.82843 9.48528 1 9.48528 1" stroke="context-fill" stroke-width="1.25" stroke-linecap="round"/>
    <path d="M6.65686 15.1421C6.65686 15.1421 6.65686 12.3137 9.48529 9.48529C12.3137 6.65686 15.1421 6.65686 15.1421 6.65686" stroke="context-fill" stroke-width="1.25" stroke-linecap="round"/>
</svg>
